{
   "response":{
      "status":"ok",
      "userTier":"developer",
      "total":154124,
      "startIndex":11,
      "pageSize":10,
      "currentPage":2,
      "pages":15413,
      "orderBy":"relevance",
      "results":[
         {
            "id":"uk-news/2021/mar/06/meghan-markle-stirs-public-debate-ahead-of-oprah-interview",
            "type":"article",
            "sectionId":"uk-news",
            "sectionName":"UK news",
            "webPublicationDate":"2021-03-06T20:38:06Z",
            "webTitle":"Harry and Meghan stir public debate ahead of Oprah interview",
            "webUrl":"https://www.theguardian.com/uk-news/2021/mar/06/meghan-markle-stirs-public-debate-ahead-of-oprah-interview",
            "apiUrl":"https://content.guardianapis.com/uk-news/2021/mar/06/meghan-markle-stirs-public-debate-ahead-of-oprah-interview",
            "isHosted":false,
            "pillarId":"pillar/news",
            "pillarName":"News"
         },
         {
            "id":"fashion/2021/feb/27/trayvon-martin-hoodies-black-young-people",
            "type":"article",
            "sectionId":"fashion",
            "sectionName":"Fashion",
            "webPublicationDate":"2021-02-27T08:00:19Z",
            "webTitle":"Nine years after Trayvon Martin’s killing, hoodies still spark debate",
            "webUrl":"https://www.theguardian.com/fashion/2021/feb/27/trayvon-martin-hoodies-black-young-people",
            "apiUrl":"https://content.guardianapis.com/fashion/2021/feb/27/trayvon-martin-hoodies-black-young-people",
            "isHosted":false,
            "pillarId":"pillar/lifestyle",
            "pillarName":"Lifestyle"
         },
         {
            "id":"music/2021/apr/10/music-streaming-debate-what-songwriter-artist-and-industry-insider-say-publication-parliamentary-report",
            "type":"article",
            "sectionId":"music",
            "sectionName":"Music",
            "webPublicationDate":"2021-04-10T07:00:01Z",
            "webTitle":"The music streaming debate: what the artists, songwriters and industry insiders say",
            "webUrl":"https://www.theguardian.com/music/2021/apr/10/music-streaming-debate-what-songwriter-artist-and-industry-insider-say-publication-parliamentary-report",
            "apiUrl":"https://content.guardianapis.com/music/2021/apr/10/music-streaming-debate-what-songwriter-artist-and-industry-insider-say-publication-parliamentary-report",
            "isHosted":false,
            "pillarId":"pillar/arts",
            "pillarName":"Arts"
         },
         {
            "id":"world/2021/mar/14/britons-divided-by-ethnicity-age-debate-over-race",
            "type":"article",
            "sectionId":"world",
            "sectionName":"World news",
            "webPublicationDate":"2021-03-14T09:45:28Z",
            "webTitle":"Britons divided by their ethnicity and age in debate over race",
            "webUrl":"https://www.theguardian.com/world/2021/mar/14/britons-divided-by-ethnicity-age-debate-over-race",
            "apiUrl":"https://content.guardianapis.com/world/2021/mar/14/britons-divided-by-ethnicity-age-debate-over-race",
            "isHosted":false,
            "pillarId":"pillar/news",
            "pillarName":"News"
         },
         {
            "id":"world/2021/mar/10/mps-hit-back-after-india-summons-envoy-over-farmers-protest-debate",
            "type":"article",
            "sectionId":"world",
            "sectionName":"World news",
            "webPublicationDate":"2021-03-10T16:29:33Z",
            "webTitle":"MPs hit back after India summons envoy over farmers' protest debate",
            "webUrl":"https://www.theguardian.com/world/2021/mar/10/mps-hit-back-after-india-summons-envoy-over-farmers-protest-debate",
            "apiUrl":"https://content.guardianapis.com/world/2021/mar/10/mps-hit-back-after-india-summons-envoy-over-farmers-protest-debate",
            "isHosted":false,
            "pillarId":"pillar/news",
            "pillarName":"News"
         },
         {
            "id":"australia-news/2021/mar/09/harry-and-meghan-interview-stirs-debate-about-australia-becoming-a-republic",
            "type":"article",
            "sectionId":"australia-news",
            "sectionName":"Australia news",
            "webPublicationDate":"2021-03-09T04:31:21Z",
            "webTitle":"Harry and Meghan interview stirs debate about Australia becoming a republic",
            "webUrl":"https://www.theguardian.com/australia-news/2021/mar/09/harry-and-meghan-interview-stirs-debate-about-australia-becoming-a-republic",
            "apiUrl":"https://content.guardianapis.com/australia-news/2021/mar/09/harry-and-meghan-interview-stirs-debate-about-australia-becoming-a-republic",
            "isHosted":false,
            "pillarId":"pillar/news",
            "pillarName":"News"
         },
         {
            "id":"fashion/2021/mar/07/we-not-the-gatekeepers-the-golden-globes-spark-an-inclusion-debate",
            "type":"article",
            "sectionId":"fashion",
            "sectionName":"Fashion",
            "webPublicationDate":"2021-03-07T13:58:54Z",
            "webTitle":"'We're not the gatekeepers':  the Golden Globes spark an inclusion debate",
            "webUrl":"https://www.theguardian.com/fashion/2021/mar/07/we-not-the-gatekeepers-the-golden-globes-spark-an-inclusion-debate",
            "apiUrl":"https://content.guardianapis.com/fashion/2021/mar/07/we-not-the-gatekeepers-the-golden-globes-spark-an-inclusion-debate",
            "isHosted":false,
            "pillarId":"pillar/lifestyle",
            "pillarName":"Lifestyle"
         },
         {
            "id":"commentisfree/2021/apr/16/debate-tv-diversity-bbc-idris-elba-luther",
            "type":"article",
            "sectionId":"commentisfree",
            "sectionName":"Opinion",
            "webPublicationDate":"2021-04-16T13:57:01Z",
            "webTitle":"We need a proper debate about TV diversity, instead we get ludicrous arguments | Ellen E Jones",
            "webUrl":"https://www.theguardian.com/commentisfree/2021/apr/16/debate-tv-diversity-bbc-idris-elba-luther",
            "apiUrl":"https://content.guardianapis.com/commentisfree/2021/apr/16/debate-tv-diversity-bbc-idris-elba-luther",
            "isHosted":false,
            "pillarId":"pillar/opinion",
            "pillarName":"Opinion"
         },
         {
            "id":"global-development/2021/feb/25/malawi-mps-debate-bill-to-liberalise-abortion-laws-as-churches-oppose",
            "type":"article",
            "sectionId":"global-development",
            "sectionName":"Global development",
            "webPublicationDate":"2021-02-25T07:15:20Z",
            "webTitle":"Malawi MPs debate bill to liberalise abortion laws as churches oppose",
            "webUrl":"https://www.theguardian.com/global-development/2021/feb/25/malawi-mps-debate-bill-to-liberalise-abortion-laws-as-churches-oppose",
            "apiUrl":"https://content.guardianapis.com/global-development/2021/feb/25/malawi-mps-debate-bill-to-liberalise-abortion-laws-as-churches-oppose",
            "isHosted":false,
            "pillarId":"pillar/news",
            "pillarName":"News"
         },
         {
            "id":"uk-news/2021/feb/21/keep-out-of-bristols-slaver-street-names-debate-ministers-are-told",
            "type":"article",
            "sectionId":"uk-news",
            "sectionName":"UK news",
            "webPublicationDate":"2021-02-21T08:15:55Z",
            "webTitle":"Keep out of Bristol’s slaver street names debate, ministers are told",
            "webUrl":"https://www.theguardian.com/uk-news/2021/feb/21/keep-out-of-bristols-slaver-street-names-debate-ministers-are-told",
            "apiUrl":"https://content.guardianapis.com/uk-news/2021/feb/21/keep-out-of-bristols-slaver-street-names-debate-ministers-are-told",
            "isHosted":false,
            "pillarId":"pillar/news",
            "pillarName":"News"
         }
      ]
   }
}
